<svg xmlns="http://www.w3.org/2000/svg" xmlns:xlink="http://www.w3.org/1999/xlink" xmlns:ev="http://www.w3.org/2001/xml-events"
		xmlns:v="http://schemas.microsoft.com/visio/2003/SVGExtensions/" width="1.11278in" height="1.7427in"
		viewBox="0 0 80.1201 125.474" xml:space="preserve" color-interpolation-filters="sRGB" class="st2">

<linearGradient id="anim"  x1="0%" y1="100%">
      <stop offset="0%" stop-color="#C7C402" stop-opacity="1">
		<animate attributeName="stop-color" 
		values="#C7C402;#FEFE82;#C7C402" dur="500ms" repeatCount="indefinite"/>
		</stop>
    </linearGradient>
    
    		<g id="shape1-1" v:mID="1" v:groupContext="shape" transform="translate(0.375,-0.375)">
			<rect fill="url(#anim)" x="0" y="0.750001" width="79.3701" height="124.724" class="st1"/>
		</g>
</svg>
