<svg xmlns="http://www.w3.org/2000/svg" xmlns:xlink="http://www.w3.org/1999/xlink" xmlns:ev="http://www.w3.org/2001/xml-events"
		xmlns:v="http://schemas.microsoft.com/visio/2003/SVGExtensions/" width="0.923802in" height="1.18365in"
		viewBox="0 0 66.5138 85.2224" xml:space="preserve" color-interpolation-filters="sRGB" class="st2">

	<linearGradient id="anim"  fy="0">
      <stop offset="0" stop-color="#148F01">
		</stop>
		<stop offset=".7" stop-color="#46DF04">
		</stop>
    </linearGradient>


		<g id="shape1-1" v:mID="1" v:groupContext="shape" transform="translate(0.375,-0.375)">
			<path fill="url(#anim)"  stroke='rgba(49,163,0,0.7)' d="M0 0.75 L65.76 0.75 L65.76 30.23 L54.43 30.23 L54.43 44.4 L51.87 44.4 L51.87 85.22 L15.87 85.22 L15.87 64.25
						 L8.5 64.25 L8.5 30.23 L0.57 30.23 L0 0.75 Z" class="st1"/>
		</g>
</svg>
